{
    "css": {
        "public/build/css/dist.min.css": [
            "public/**/assets/css/*.css"
        ]
    },
    "js": {
        "public/build/js/dist.min.js": [
            "public/system/lib/jquery/dist/jquery.min.js",
            "public/system/lib/angular/angular.js",
            "public/system/lib/angular-animate/angular-animate.js",
            "public/system/lib/angular-ui-router/release/angular-ui-router.js",
            "public/system/lib/underscore/underscore-min.js",

            "public/system/lib/angular-mocks/angular-mocks.js",
            "public/system/lib/angular-cookies/angular-cookies.js",
            "public/system/lib/angular-resource/angular-resource.js",

            "public/system/lib/angular-bootstrap/ui-bootstrap.js",
            "public/system/lib/jquery-spinner/dist/jquery.spinner.min.js",

            "public/system/lib/angular-wizard/dist/angular-wizard.js",
            "public/system/lib/angular-bootstrap/ui-bootstrap-tpls.min.js",
            "public/system/lib/seiyria-bootstrap-slider/dist/bootstrap-slider.min.js",
            "public/system/lib/jquery-steps/build/jquery.steps.min.js",
            "public/system/lib/toastr/toastr.min.js",
            "public/system/lib/bootstrap-file-input/bootstrap.file-input.js",
            "public/system/lib/jquery.slimscroll/jquery.slimscroll.min.js",

            "public/system/lib/holderjs/holder.js",
            "public/system/lib/raphael/raphael-min.js",
            "public/system/lib/morris.js/morris.js",
            "public/system/lib/flot/jquery.flot.js",
            "public/system/lib/flot/jquery.flot.resize.js",
            "public/system/lib/flot/jquery.flot.pie.js",
            "public/system/lib/flot/jquery.flot.stack.js",
            "public/system/lib/flot/jquery.flot.time.js",
            "public/system/lib/gauge.js/dist/gauge.min.js",
            "public/system/lib/jquery.easy-pie-chart/dist/angular.easypiechart.min.js",
            "public/system/lib/angular-wizard/dist/angular-wizard.min.js",

            "public/init.js",
            "public/*/*.js",
            "public/*/{controllers,routes,services,directives}/*.js"
        ]
    }
}
